…
- ***mnk_proj_user***

Users explicitly subscribed to a project can be retrieved with
mnk_proj_user() using the project ID

``` r

prj_user <- mnk_proj_user(419)

prj_user
#> # A tibble: 24 × 16
#>       id login          name              created_at          observations_count
#>    <int> <chr>          <chr>             <dttm>                           <int>
#>  1     4 xasalva        "xavi salvador c… 2021-04-16 10:44:11              81451
#>  2     6 ramonservitje  ""                2022-04-16 15:47:14               1259
#>  3    11 jaume-piera    "Jaume Piera"     2022-04-18 15:45:37              10994
#>  4    12 sonialinan      NA               2022-04-19 12:53:18                410
#>  5    13 adrisoacha     "Karen Soacha"    2022-04-21 09:40:57                578
#>  6    52 joselu_00      "José Luís Guijo… 2022-05-10 13:38:20                404
#>  7   159 jaumesaltiveri "Jaume Saltiveri" 2022-07-17 13:30:45                  2
#>  8   166 anomalia       "anomalia"        2022-07-19 07:56:08                 23
#>  9   197 peixderoca24   "Guillem Mayor S… 2022-08-08 12:58:18               4454
#> 10   219 ealcaniz       "Edu Alcaniz"     2022-08-27 15:52:52              27449
#> # ℹ 14 more rows
#> # ℹ 11 more variables: identifications_count <int>, species_count <int>,
#> #   activity_count <int>, journal_posts_count <int>, orcid <chr>,
#> #   icon_url <chr>, site_id <int>, roles <list>, spam <lgl>, suspended <lgl>,
#> #   universal_search_rank <int>
```
…
library(rminka)
library(dplyr)

# 1. Download all observations for the project in may 2025

obs_2025 <- mnk_proj_obs(419,year=2025, mont=5, quiet = TRUE)

# 2. Extract the unique participants

participants_may_2025 <- obs_2025 %>%
  distinct(user_login) %>%
  arrange(user_login)

participants_may_2025
#> # A tibble: 30 × 1
#>    user_login          
#>    <chr>               
#>  1 aci                 
#>  2 albertvim           
#>  3 allbluediving       
#>  4 bertinhaco          
#>  5 biosub              
#>  6 elibonfill          
#>  7 elisenda_casabona   
#>  8 evararo             
#>  9 francesca           
#> 10 hectorserranocereijo
#> # ℹ 20 more rows
```
…
``` r

prj_obs <- mnk_proj_obs(419, year= 2025, month=5)
#> --- STARTING DOWNLOAD FOR MONTH: May 2025 ---
#> 
#> --- Evaluating month: May 2025 ---
#> The month of May has 1173 records.
#>  -> Total <= 10,000. Downloading month in one go...
#> 
#> --- FINISHING... ---
#> Download complete! A total of 1,173 records were obtained.

prj_obs[2:14]
#> # A tibble: 1,173 × 13
#>    observed_on  year month  week   day  hour created_at      updated_at latitude
#>    <chr>       <int> <int> <int> <int> <int> <chr>           <chr>         <dbl>
#>  1 2025-05-23   2025     5    21    23    11 2026-03-14T12:… 2026-03-1…     41.1
#>  2 2025-05-24   2025     5    21    24    19 2025-10-22T21:… 2025-10-2…     41.2
#>  3 2025-05-24   2025     5    21    24    19 2025-10-22T21:… 2025-10-2…     41.2
#>  4 2025-05-24   2025     5    21    24    19 2025-10-22T21:… 2025-10-2…     41.2
#>  5 2025-05-24   2025     5    21    24    19 2025-10-22T21:… 2025-10-2…     41.2
#>  6 2025-05-24   2025     5    21    24    19 2025-10-22T21:… 2025-10-2…     41.2
#>  7 2025-05-24   2025     5    21    24    19 2025-10-22T21:… 2025-10-2…     41.2
#>  8 2025-05-24   2025     5    21    24    19 2025-10-22T21:… 2025-11-0…     41.2
#>  9 2025-05-24   2025     5    21    24    18 2025-10-22T21:… 2025-10-2…     41.2
#> 10 2025-05-24   2025     5    21    24    18 2025-10-22T21:… 2025-10-2…     41.2
#> # ℹ 1,163 more rows
#> # ℹ 4 more variables: longitude <dbl>, positional_accuracy <int>,
#> #   geoprivacy <chr>, obscured <lgl>
```
…
``` r

user_obs <- mnk_user_obs(user_id= 4, year = 2025, month = 8)
#> --- STARTING DOWNLOAD FOR MONTH: August 2025 ---
#> 
#> --- Evaluating month: August 2025 ---
#> The month of August has 2347 records.
#>  -> Total <= 10,000. Downloading month in one go...
#> 
#> --- FINISHING... ---
#> Download complete! A total of 2,347 records were obtained.

user_obs
#> # A tibble: 2,347 × 27
#>        id observed_on  year month  week   day  hour created_at        updated_at
#>     <int> <chr>       <int> <int> <int> <int> <int> <chr>             <chr>     
#>  1 596411 2025-08-30   2025     8    35    30    12 2025-10-17T10:40… 2025-10-1…
#>  2 596410 2025-08-30   2025     8    35    30    12 2025-10-17T10:40… 2025-10-1…
#>  3 596409 2025-08-30   2025     8    35    30    12 2025-10-17T10:40… 2025-10-1…
#>  4 596408 2025-08-30   2025     8    35    30    12 2025-10-17T10:40… 2025-10-1…
#>  5 596407 2025-08-30   2025     8    35    30    12 2025-10-17T10:40… 2025-10-1…
#>  6 596406 2025-08-30   2025     8    35    30    12 2025-10-17T10:40… 2025-10-1…
#>  7 596405 2025-08-30   2025     8    35    30    12 2025-10-17T10:40… 2025-10-1…
#>  8 596404 2025-08-30   2025     8    35    30    12 2025-10-17T10:40… 2025-10-1…
#>  9 596403 2025-08-30   2025     8    35    30    12 2025-10-17T10:40… 2025-10-1…
#> 10 596402 2025-08-30   2025     8    35    30    12 2025-10-17T10:40… 2025-10-1…
#> # ℹ 2,337 more rows
#> # ℹ 18 more variables: latitude <dbl>, longitude <dbl>,
#> #   positional_accuracy <int>, geoprivacy <chr>, obscured <lgl>, uri <chr>,
#> #   url_picture <chr>, quality_grade <chr>, taxon_id <int>, taxon_name <chr>,
#> #   taxon_rank <chr>, taxon_min_ancestry <chr>, taxon_endemic <lgl>,
#> #   taxon_threatened <lgl>, taxon_introduced <lgl>, taxon_native <lgl>,
#> #   user_id <int>, user_login <chr>
```
…
- ***mnk_places_obs***

``` r

obs_place <- mnk_place_obs(place_id = 253, year = 2025, month = 2, quiet = TRUE)

obs_place
#> # A tibble: 529 × 27
#>        id observed_on  year month  week   day  hour created_at        updated_at
#>     <int> <chr>       <int> <int> <int> <int> <int> <chr>             <chr>     
#>  1 427205 2025-02-19   2025     2     8    19    11 2025-03-19T12:44… 2025-03-1…
#>  2 427204 2025-02-19   2025     2     8    19    12 2025-03-19T12:44… 2025-03-1…
#>  3 427203 2025-02-19   2025     2     8    19    12 2025-03-19T12:44… 2026-01-2…
#>  4 427202 2025-02-19   2025     2     8    19    12 2025-03-19T12:44… 2025-03-1…
#>  5 427201 2025-02-19   2025     2     8    19    12 2025-03-19T12:44… 2025-03-1…
#>  6 427200 2025-02-19   2025     2     8    19    12 2025-03-19T12:44… 2025-03-1…
#>  7 427199 2025-02-19   2025     2     8    19    12 2025-03-19T12:44… 2025-03-1…
#>  8 427198 2025-02-19   2025     2     8    19    12 2025-03-19T12:44… 2025-03-1…
#>  9 427197 2025-02-19   2025     2     8    19    11 2025-03-19T12:44… 2025-03-1…
#> 10 427196 2025-02-19   2025     2     8    19    11 2025-03-19T12:44… 2025-03-1…
#> # ℹ 519 more rows
#> # ℹ 18 more variables: latitude <dbl>, longitude <dbl>,
#> #   positional_accuracy <int>, geoprivacy <chr>, obscured <lgl>, uri <chr>,
#> #   url_picture <chr>, quality_grade <chr>, taxon_id <int>, taxon_name <chr>,
#> #   taxon_rank <chr>, taxon_min_ancestry <chr>, taxon_endemic <lgl>,
#> #   taxon_threatened <lgl>, taxon_introduced <lgl>, taxon_native <lgl>,
#> #   user_id <int>, user_login <chr>
…
